<svg width="94" height="100" viewBox="0 0 94 100" fill="none" xmlns="http://www.w3.org/2000/svg">
<path d="M46.9509 0C43.906 0 40.861 0.482625 38.1108 1.5444C35.6552 2.50965 4.42006 20.6564 4.42006 20.6564C1.6698 22.2973 0 25.1931 0 28.2819V71.5251C0 74.6139 1.6698 77.5097 4.42006 79.0541C20.0376 88.3205 36.8339 97.973 38.9948 98.6486C41.5486 99.5174 44.2989 99.9035 46.9509 99.9035C49.7011 99.9035 52.3532 99.4208 54.907 98.6486C57.9519 97.5869 89.4817 79.0541 89.4817 79.0541C92.232 77.5097 93.9018 74.6139 93.9018 71.5251V28.2819C93.9018 25.1931 92.232 22.2973 89.4817 20.7529C74.5517 12.0656 57.6573 2.3166 55.791 1.64093C53.0408 0.482625 49.9958 0 46.9509 0Z" fill="#02395E"/>
</svg>
