<svg width="653" height="189" viewBox="0 0 653 189" x="50%" y="50%" xmlns="http://www.w3.org/2000/svg">
<path d="M163.593 1.9C157.493 1.9 153.893 2.1 146.593 3.2V66.7C153.993 67.8 158.893 67.9 164.593 67.9C186.493 67.9 200.093 54 200.093 34.5C200.093 15 187.293 1.9 163.593 1.9ZM164.893 60.6C160.793 60.6 157.893 60.4 154.693 60.1V9.8C158.193 9.5 160.693 9.4 163.593 9.4C182.793 9.4 191.593 19.7 191.593 34.7C191.593 49.9 182.593 60.6 164.893 60.6ZM251.779 39.4C251.779 27.2 242.879 18.5 230.779 18.5C217.979 18.5 207.979 29 207.979 43.6C207.979 58.7 217.679 68.4 231.479 68.4C240.279 68.4 246.179 64.8 249.979 61.6C249.479 59.5 247.579 57.1 245.579 56.1C242.979 58.1 239.379 61 231.579 61C222.979 61 216.979 54.5 216.379 45.8H251.379C251.679 43.1 251.779 41.9 251.779 39.4ZM216.479 39.1C217.379 31.8 222.579 25.7 230.779 25.7C239.979 25.7 243.379 32.7 243.379 39.1H216.479ZM290.818 20.1C287.618 19 284.518 18.5 280.718 18.5C272.918 18.5 265.618 21.6 261.718 24.9V67C263.118 67.3 264.418 67.4 265.818 67.4C267.218 67.4 268.618 67.3 269.918 67V28.5C272.518 26.9 276.118 26.1 280.218 26.1C283.118 26.1 286.218 26.4 288.818 27.1C290.218 25.3 291.018 22.5 290.818 20.1ZM336.669 39.4C336.669 27.2 327.769 18.5 315.669 18.5C302.869 18.5 292.869 29 292.869 43.6C292.869 58.7 302.569 68.4 316.369 68.4C325.169 68.4 331.069 64.8 334.869 61.6C334.369 59.5 332.469 57.1 330.469 56.1C327.869 58.1 324.269 61 316.469 61C307.869 61 301.869 54.5 301.269 45.8H336.269C336.569 43.1 336.669 41.9 336.669 39.4ZM301.369 39.1C302.269 31.8 307.469 25.7 315.669 25.7C324.869 25.7 328.269 32.7 328.269 39.1H301.369ZM368.308 68.4C375.408 68.4 381.608 65.3 384.608 62.2C383.808 59.7 382.208 57.8 380.008 56.6C378.208 58 374.908 61 368.308 61C357.108 61 352.108 52.6 352.108 43.5C352.108 34.4 357.108 25.8 368.308 25.8C373.108 25.8 376.508 27.7 379.308 29.9C381.708 28.5 383.208 26.4 383.908 24C380.908 21.2 375.308 18.5 368.308 18.5C354.508 18.5 343.908 28.7 343.908 43.5C343.908 59.1 354.008 68.4 368.308 68.4ZM415.948 18.5C410.248 18.5 405.848 20 401.948 22.2V1.3C400.648 0.999997 399.248 0.899999 397.948 0.899999C396.648 0.899999 395.248 0.999997 393.848 1.3V67C395.248 67.3 396.648 67.4 397.948 67.4C399.248 67.4 400.648 67.3 401.948 67V29.7C405.548 27.6 410.248 26.2 414.448 26.2C425.448 26.2 428.248 33 428.248 40.7V67C429.648 67.3 430.948 67.4 432.248 67.4C433.548 67.4 435.048 67.3 436.348 67V37.8C436.348 28 430.148 18.5 415.948 18.5ZM470.277 68.3C484.377 68.3 494.877 57.5 494.877 43.4C494.877 29.3 484.977 18.4 470.877 18.4C456.777 18.4 446.277 29.3 446.277 43.4C446.277 57.5 456.177 68.3 470.277 68.3ZM470.577 60.8C460.677 60.8 454.477 53.6 454.477 43.4C454.477 33.2 460.677 25.9 470.577 25.9C480.477 25.9 486.677 33.2 486.677 43.4C486.677 53.6 480.477 60.8 470.577 60.8ZM39.2477 122.8C36.7477 122.3 34.5477 122.2 31.9477 122.2C29.4477 122.2 26.7477 122.3 24.2477 122.8L0.247656 186.3C2.44766 187.1 5.24766 187.4 8.14766 187.4C10.3477 187.4 12.7477 187.3 14.9477 187L19.5477 174.3H43.3477L47.9477 187C49.6477 187.3 51.6477 187.5 53.4477 187.5C56.7477 187.5 59.9477 187 63.0477 186.3L39.2477 122.8ZM24.1477 161.9L29.5477 147.1L31.3477 140.9L33.3477 147.1L38.7477 161.9H24.1477ZM105.262 120.7C102.862 120.7 100.362 120.9 97.8617 121.3V139.1C95.6617 138.5 93.2617 138.2 90.1617 138.2C75.4617 138.2 63.6617 148 63.6617 163.6C63.6617 179.7 74.0617 188.7 91.3617 188.7C99.5617 188.7 107.762 186.5 112.762 184V121.3C110.262 120.9 107.762 120.7 105.262 120.7ZM90.8617 176C83.6617 176 78.6617 171 78.6617 163.4C78.6617 155.7 83.9617 150.9 91.0617 150.9C93.3617 150.9 95.6617 151.2 97.8617 152.3V175.1C95.5617 175.7 93.2617 176 90.8617 176ZM176.788 137.9C170.388 137.9 164.888 140 161.088 142.4C157.488 139.6 152.288 137.9 145.588 137.9C133.888 137.9 124.988 142.9 121.588 145.8V187C124.088 187.4 126.488 187.6 128.988 187.6C131.488 187.6 133.988 187.4 136.488 187V153.4C138.288 152.3 140.888 151.4 144.188 151.4C149.788 151.4 152.688 154.5 152.688 160.4V187C155.088 187.4 157.588 187.6 160.088 187.6C162.588 187.6 165.088 187.4 167.588 187V157.1C167.588 156.1 167.488 155.1 167.388 154.1C169.188 152.8 171.588 151.4 175.388 151.4C180.988 151.4 183.788 154.5 183.788 160.4V187C186.288 187.4 188.788 187.6 191.288 187.6C193.788 187.6 196.288 187.4 198.788 187V157.1C198.788 146 191.688 137.9 176.788 137.9ZM214.998 133.4C219.898 133.4 223.998 129.3 223.998 124.4C223.998 119.5 219.898 115.5 214.998 115.5C209.998 115.5 205.998 119.5 205.998 124.4C205.998 129.3 210.098 133.4 214.998 133.4ZM214.898 187.6C217.498 187.6 219.998 187.4 222.398 187V139.5C219.798 139.1 217.298 138.9 214.898 138.9C212.398 138.9 209.898 139.1 207.498 139.5V187C209.998 187.4 212.498 187.6 214.898 187.6ZM255.284 137.9C243.484 137.9 234.984 142.5 231.284 145.8V187C233.784 187.4 236.184 187.6 238.684 187.6C241.184 187.6 243.684 187.4 246.184 187V153.4C247.884 152.4 250.684 151.4 254.184 151.4C259.484 151.4 263.184 153.8 263.184 160.6V187C265.684 187.4 268.184 187.6 270.684 187.6C273.184 187.6 275.684 187.4 278.184 187V158.2C278.184 146.5 271.084 137.9 255.284 137.9ZM294.42 133.4C299.32 133.4 303.42 129.3 303.42 124.4C303.42 119.5 299.32 115.5 294.42 115.5C289.42 115.5 285.42 119.5 285.42 124.4C285.42 129.3 289.52 133.4 294.42 133.4ZM294.32 187.6C296.92 187.6 299.42 187.4 301.82 187V139.5C299.22 139.1 296.72 138.9 294.32 138.9C291.82 138.9 289.32 139.1 286.92 139.5V187C289.42 187.4 291.92 187.6 294.32 187.6ZM329.105 188.7C343.005 188.7 350.605 182.5 350.605 172.6C350.605 162.3 342.705 159.2 333.305 157.6C325.805 156.2 323.705 155.3 323.705 152.9C323.705 150.5 325.905 149.5 330.605 149.5C336.005 149.5 341.305 151.2 344.505 153C347.205 150.9 349.105 147.4 349.705 142.6C346.405 140.5 340.305 138.2 330.405 138.2C318.505 138.2 309.505 143.8 309.505 153.6C309.505 164.1 317.705 166.9 325.505 168.5C333.305 169.9 335.805 171.2 335.805 173.7C335.805 175.8 334.205 177.5 329.605 177.5C322.405 177.5 317.505 174.9 314.005 172.7C311.105 174.5 308.905 178 308.105 182.7C311.205 185.3 318.405 188.7 329.105 188.7ZM390.352 173C388.752 174.4 386.552 175.8 383.752 175.8C379.352 175.8 376.852 174 376.852 168.6V152.5H393.452C393.852 150.4 394.152 148.4 394.152 146.2C394.152 144.2 393.852 142.2 393.452 140.3H376.852V127.8C374.552 127.4 372.052 127.2 369.652 127.2C367.152 127.2 364.652 127.4 362.052 127.8V140.3H353.952C353.652 142.3 353.452 144.3 353.452 146.3C353.452 148.5 353.652 150.6 353.952 152.5H362.052V172.3C362.052 183.9 370.252 188.5 381.152 188.5C388.352 188.5 393.152 185.9 396.552 183.2C396.052 179.2 393.252 174.7 390.352 173ZM421.677 138C411.277 138 403.877 142.3 400.577 145.3V187C403.077 187.4 405.477 187.6 407.977 187.6C410.477 187.6 413.077 187.4 415.477 187V153C417.077 152.2 419.677 151.6 422.777 151.6C424.877 151.6 426.677 151.8 428.477 152.3C431.177 148.9 432.577 144.3 432.677 139.4C429.877 138.5 426.177 138 421.677 138ZM455.2 138.2C444.8 138.2 437.3 142.7 434.6 145.1C435.3 149.5 437.8 152.8 441 154.6C443.5 152.7 448.3 150.5 453.9 150.5C460.9 150.5 463.7 153.4 463.7 157.5V159.4C460.8 158.5 457.5 158.1 453.7 158C441.6 157.9 433 163 433 173C433 183.4 440.9 188.6 454.5 188.6C463.2 188.6 471.4 186.8 478.5 183.9V159C478.5 144.2 469 138.2 455.2 138.2ZM447.9 172.4C447.9 168.9 450.8 167.3 455.5 167.3C458.6 167.3 461.3 167.7 463.7 168.4V177.1C461.3 177.8 458.9 178.2 456.5 178.2C450.8 178.2 447.9 175.9 447.9 172.4ZM518.763 173C517.163 174.4 514.963 175.8 512.163 175.8C507.763 175.8 505.263 174 505.263 168.6V152.5H521.863C522.263 150.4 522.563 148.4 522.563 146.2C522.563 144.2 522.263 142.2 521.863 140.3H505.263V127.8C502.963 127.4 500.463 127.2 498.063 127.2C495.563 127.2 493.062 127.4 490.463 127.8V140.3H482.363C482.063 142.3 481.863 144.3 481.863 146.3C481.863 148.5 482.063 150.6 482.363 152.5H490.463V172.3C490.463 183.9 498.663 188.5 509.563 188.5C516.763 188.5 521.563 185.9 524.963 183.2C524.463 179.2 521.663 174.7 518.763 173ZM536.787 133.4C541.687 133.4 545.787 129.3 545.787 124.4C545.787 119.5 541.687 115.5 536.787 115.5C531.787 115.5 527.787 119.5 527.787 124.4C527.787 129.3 531.887 133.4 536.787 133.4ZM536.687 187.6C539.287 187.6 541.787 187.4 544.187 187V139.5C541.587 139.1 539.087 138.9 536.687 138.9C534.187 138.9 531.687 139.1 529.287 139.5V187C531.787 187.4 534.287 187.6 536.687 187.6ZM589.673 139.3C587.673 139.3 585.573 139.4 583.873 139.6C581.173 153.3 577.773 165.5 575.073 172.2C574.873 172.9 574.673 173.6 574.473 174.5C574.273 173.6 574.073 172.9 573.873 172.2C571.473 166.1 567.673 153.3 564.973 139.6C563.373 139.4 561.273 139.3 559.473 139.3C555.373 139.3 550.773 139.9 548.773 140.4C552.773 158.4 557.373 172.3 566.873 187C569.373 187.5 571.773 187.7 574.273 187.7C576.673 187.7 579.173 187.5 581.573 187C590.173 172.9 595.173 158.8 599.473 140.4C596.973 139.8 593.273 139.3 589.673 139.3ZM626.738 188.6C641.838 188.6 652.838 178.5 652.838 163.3C652.838 147.8 642.038 137.9 626.938 137.9C611.838 137.9 600.838 148 600.838 163.3C600.838 179 611.638 188.6 626.738 188.6ZM626.838 176.2C619.838 176.2 615.738 171 615.738 163.3C615.738 155.5 619.838 150.4 626.838 150.4C633.838 150.4 637.838 155.5 637.838 163.3C637.838 171 633.838 176.2 626.838 176.2Z" fill="#C58511"/>
</svg>
