<svg width="565" height="189" viewBox="0 0 565 189" fill="none" xmlns="http://www.w3.org/2000/svg">
<path d="M117.593 1.9C111.493 1.9 107.893 2.1 100.593 3.2V66.7C107.993 67.8 112.893 67.9 118.593 67.9C140.493 67.9 154.093 54 154.093 34.5C154.093 15 141.293 1.9 117.593 1.9ZM118.893 60.6C114.793 60.6 111.893 60.4 108.693 60.1V9.8C112.193 9.5 114.693 9.4 117.593 9.4C136.793 9.4 145.593 19.7 145.593 34.7C145.593 49.9 136.593 60.6 118.893 60.6ZM205.779 39.4C205.779 27.2 196.879 18.5 184.779 18.5C171.979 18.5 161.979 29 161.979 43.6C161.979 58.7 171.679 68.4 185.479 68.4C194.279 68.4 200.179 64.8 203.979 61.6C203.479 59.5 201.579 57.1 199.579 56.1C196.979 58.1 193.379 61 185.579 61C176.979 61 170.979 54.5 170.379 45.8H205.379C205.679 43.1 205.779 41.9 205.779 39.4ZM170.479 39.1C171.379 31.8 176.579 25.7 184.779 25.7C193.979 25.7 197.379 32.7 197.379 39.1H170.479ZM244.818 20.1C241.618 19 238.518 18.5 234.718 18.5C226.918 18.5 219.618 21.6 215.718 24.9V67C217.118 67.3 218.418 67.4 219.818 67.4C221.218 67.4 222.618 67.3 223.918 67V28.5C226.518 26.9 230.118 26.1 234.218 26.1C237.118 26.1 240.218 26.4 242.818 27.1C244.218 25.3 245.018 22.5 244.818 20.1ZM290.669 39.4C290.669 27.2 281.769 18.5 269.669 18.5C256.869 18.5 246.869 29 246.869 43.6C246.869 58.7 256.569 68.4 270.369 68.4C279.169 68.4 285.069 64.8 288.869 61.6C288.369 59.5 286.469 57.1 284.469 56.1C281.869 58.1 278.269 61 270.469 61C261.869 61 255.869 54.5 255.269 45.8H290.269C290.569 43.1 290.669 41.9 290.669 39.4ZM255.369 39.1C256.269 31.8 261.469 25.7 269.669 25.7C278.869 25.7 282.269 32.7 282.269 39.1H255.369ZM322.308 68.4C329.408 68.4 335.608 65.3 338.608 62.2C337.808 59.7 336.208 57.8 334.008 56.6C332.208 58 328.908 61 322.308 61C311.108 61 306.108 52.6 306.108 43.5C306.108 34.4 311.108 25.8 322.308 25.8C327.108 25.8 330.508 27.7 333.308 29.9C335.708 28.5 337.208 26.4 337.908 24C334.908 21.2 329.308 18.5 322.308 18.5C308.508 18.5 297.908 28.7 297.908 43.5C297.908 59.1 308.008 68.4 322.308 68.4ZM369.948 18.5C364.248 18.5 359.848 20 355.948 22.2V1.3C354.648 0.999997 353.248 0.899999 351.948 0.899999C350.648 0.899999 349.248 0.999997 347.848 1.3V67C349.248 67.3 350.648 67.4 351.948 67.4C353.248 67.4 354.648 67.3 355.948 67V29.7C359.548 27.6 364.248 26.2 368.448 26.2C379.448 26.2 382.248 33 382.248 40.7V67C383.648 67.3 384.948 67.4 386.248 67.4C387.548 67.4 389.048 67.3 390.348 67V37.8C390.348 28 384.148 18.5 369.948 18.5ZM424.277 68.3C438.377 68.3 448.877 57.5 448.877 43.4C448.877 29.3 438.977 18.4 424.877 18.4C410.777 18.4 400.277 29.3 400.277 43.4C400.277 57.5 410.177 68.3 424.277 68.3ZM424.577 60.8C414.677 60.8 408.477 53.6 408.477 43.4C408.477 33.2 414.677 25.9 424.577 25.9C434.477 25.9 440.677 33.2 440.677 43.4C440.677 53.6 434.477 60.8 424.577 60.8ZM8.32734 187.6C10.8273 187.6 13.2273 187.4 15.6273 187V122.9C12.9273 122.4 10.5273 122.3 8.02734 122.3C5.52734 122.3 3.12734 122.4 0.727344 122.9V187C3.32734 187.4 5.82734 187.6 8.32734 187.6ZM49.85 137.9C38.05 137.9 29.55 142.5 25.85 145.8V187C28.35 187.4 30.75 187.6 33.25 187.6C35.75 187.6 38.25 187.4 40.75 187V153.4C42.45 152.4 45.25 151.4 48.75 151.4C54.05 151.4 57.75 153.8 57.75 160.6V187C60.25 187.4 62.75 187.6 65.25 187.6C67.75 187.6 70.25 187.4 72.75 187V158.2C72.75 146.5 65.65 137.9 49.85 137.9ZM113.798 173C112.198 174.4 109.998 175.8 107.198 175.8C102.798 175.8 100.298 174 100.298 168.6V152.5H116.898C117.298 150.4 117.598 148.4 117.598 146.2C117.598 144.2 117.298 142.2 116.898 140.3H100.298V127.8C97.9977 127.4 95.4977 127.2 93.0977 127.2C90.5977 127.2 88.0977 127.4 85.4977 127.8V140.3H77.3977C77.0977 142.3 76.8977 144.3 76.8977 146.3C76.8977 148.5 77.0977 150.6 77.3977 152.5H85.4977V172.3C85.4977 183.9 93.6977 188.5 104.598 188.5C111.798 188.5 116.598 185.9 119.998 183.2C119.498 179.2 116.698 174.7 113.798 173ZM169.122 160C169.122 146.7 160.022 138.2 146.622 138.2C132.422 138.2 121.822 148.7 121.822 163.7C121.822 179.6 132.422 188.7 147.122 188.7C157.422 188.7 163.922 185.2 168.122 182C167.722 178.3 165.822 174.3 162.722 171.9C159.022 174.3 154.722 176.7 148.722 176.7C141.622 176.7 137.922 173.7 137.022 167H168.622C169.022 164.6 169.122 162.4 169.122 160ZM137.022 158.6C137.722 153.2 141.022 149.5 146.722 149.5C152.822 149.8 155.022 154 155.022 158.6H137.022ZM196.942 138C186.542 138 179.142 142.3 175.842 145.3V187C178.342 187.4 180.742 187.6 183.242 187.6C185.742 187.6 188.342 187.4 190.742 187V153C192.342 152.2 194.942 151.6 198.042 151.6C200.142 151.6 201.942 151.8 203.742 152.3C206.442 148.9 207.842 144.3 207.942 139.4C205.142 138.5 201.442 138 196.942 138ZM235.159 137.9C223.359 137.9 214.859 142.5 211.159 145.8V187C213.659 187.4 216.059 187.6 218.559 187.6C221.059 187.6 223.559 187.4 226.059 187V153.4C227.759 152.4 230.559 151.4 234.059 151.4C239.359 151.4 243.059 153.8 243.059 160.6V187C245.559 187.4 248.059 187.6 250.559 187.6C253.059 187.6 255.559 187.4 258.059 187V158.2C258.059 146.5 250.959 137.9 235.159 137.9ZM286.095 138.2C275.695 138.2 268.195 142.7 265.495 145.1C266.195 149.5 268.695 152.8 271.895 154.6C274.395 152.7 279.195 150.5 284.795 150.5C291.795 150.5 294.595 153.4 294.595 157.5V159.4C291.695 158.5 288.395 158.1 284.595 158C272.495 157.9 263.895 163 263.895 173C263.895 183.4 271.795 188.6 285.395 188.6C294.095 188.6 302.295 186.8 309.395 183.9V159C309.395 144.2 299.895 138.2 286.095 138.2ZM278.795 172.4C278.795 168.9 281.695 167.3 286.395 167.3C289.495 167.3 292.195 167.7 294.595 168.4V177.1C292.195 177.8 289.795 178.2 287.395 178.2C281.695 178.2 278.795 175.9 278.795 172.4ZM341.043 188.7C348.743 188.7 354.543 185.6 357.943 182.5C356.743 178 354.043 174.5 350.343 172.7C348.243 174.6 345.743 176.2 341.143 176.2C333.443 176.2 329.943 170.3 329.943 163.2C329.943 155.9 333.743 150.4 341.043 150.4C344.643 150.4 347.443 151.9 349.443 153.7C353.143 151.4 356.243 147.2 357.143 143.2C354.343 140.7 347.943 137.9 340.643 137.9C325.943 137.9 314.943 147.8 314.943 163.4C314.943 179.4 324.943 188.7 341.043 188.7ZM370.806 133.4C375.706 133.4 379.806 129.3 379.806 124.4C379.806 119.5 375.706 115.5 370.806 115.5C365.806 115.5 361.806 119.5 361.806 124.4C361.806 129.3 365.906 133.4 370.806 133.4ZM370.706 187.6C373.306 187.6 375.806 187.4 378.206 187V139.5C375.606 139.1 373.106 138.9 370.706 138.9C368.206 138.9 365.706 139.1 363.306 139.5V187C365.806 187.4 368.306 187.6 370.706 187.6ZM410.792 188.6C425.892 188.6 436.892 178.5 436.892 163.3C436.892 147.8 426.092 137.9 410.992 137.9C395.892 137.9 384.892 148 384.892 163.3C384.892 179 395.692 188.6 410.792 188.6ZM410.892 176.2C403.892 176.2 399.792 171 399.792 163.3C399.792 155.5 403.892 150.4 410.892 150.4C417.892 150.4 421.892 155.5 421.892 163.3C421.892 171 417.892 176.2 410.892 176.2ZM467.307 137.9C455.507 137.9 447.007 142.5 443.307 145.8V187C445.807 187.4 448.207 187.6 450.707 187.6C453.207 187.6 455.707 187.4 458.207 187V153.4C459.907 152.4 462.707 151.4 466.207 151.4C471.507 151.4 475.207 153.8 475.207 160.6V187C477.707 187.4 480.207 187.6 482.707 187.6C485.207 187.6 487.707 187.4 490.207 187V158.2C490.207 146.5 483.107 137.9 467.307 137.9ZM518.243 138.2C507.843 138.2 500.343 142.7 497.643 145.1C498.343 149.5 500.843 152.8 504.043 154.6C506.543 152.7 511.343 150.5 516.943 150.5C523.943 150.5 526.743 153.4 526.743 157.5V159.4C523.843 158.5 520.543 158.1 516.743 158C504.643 157.9 496.043 163 496.043 173C496.043 183.4 503.943 188.6 517.543 188.6C526.243 188.6 534.443 186.8 541.543 183.9V159C541.543 144.2 532.043 138.2 518.243 138.2ZM510.943 172.4C510.943 168.9 513.843 167.3 518.543 167.3C521.643 167.3 524.343 167.7 526.743 168.4V177.1C524.343 177.8 521.943 178.2 519.543 178.2C513.843 178.2 510.943 175.9 510.943 172.4ZM557.191 187.6C559.691 187.6 562.291 187.4 564.591 187V121.5C561.991 121.1 559.391 120.9 556.891 120.9C554.391 120.9 551.891 121.1 549.591 121.5V187C552.191 187.4 554.691 187.6 557.191 187.6Z" fill="#C58511"/>
</svg>
