<svg width="76" height="76" viewBox="0 0 76 76" fill="none" xmlns="http://www.w3.org/2000/svg">
<g clip-path="url(#clip0)">
<path d="M63.4336 6.26318H59.5898V3.35693C59.5898 1.76318 58.2773 0.450684 56.6836 0.450684C55.0898 0.450684 53.7773 1.76318 53.7773 3.35693V6.26318H40.4648V3.35693C40.4648 1.76318 39.1523 0.450684 37.4648 0.450684C35.8711 0.450684 34.5586 1.76318 34.5586 3.35693V6.26318H21.3398V3.35693C21.3398 1.76318 20.0273 0.450684 18.4336 0.450684C16.8398 0.450684 15.5273 1.76318 15.5273 3.35693V6.26318H11.8711C5.40234 6.26318 0.152344 11.6069 0.152344 17.9819V63.6382C0.152344 70.2007 5.40234 75.4507 11.8711 75.4507H34.2773C35.8711 75.4507 37.1836 74.1382 37.1836 72.5444C37.1836 70.9507 35.8711 69.6382 34.2773 69.6382H11.8711C8.68359 69.6382 6.05859 67.0132 6.05859 63.8257V17.9819C6.05859 14.7944 8.68359 12.1694 11.8711 12.1694H15.5273V15.0757C15.5273 16.6694 16.8398 17.9819 18.4336 17.9819C20.0273 17.9819 21.3398 16.6694 21.3398 15.0757V12.1694H34.5586V15.0757C34.5586 16.6694 35.8711 17.9819 37.4648 17.9819C39.0586 17.9819 40.3711 16.6694 40.3711 15.0757V12.1694H53.6836V15.0757C53.6836 16.6694 54.9961 17.9819 56.5898 17.9819C58.1836 17.9819 59.4961 16.6694 59.4961 15.0757V12.1694H63.3398C66.5273 12.1694 69.1523 14.7944 69.1523 17.9819V34.6694C69.1523 36.2632 70.4648 37.5757 72.0586 37.5757C73.6523 37.5757 74.9648 36.2632 74.9648 34.6694V17.9819C75.1523 11.6069 69.9023 6.26318 63.4336 6.26318ZM61.6523 54.7319H60.3398V51.6382C60.3398 50.0444 59.0273 48.7319 57.4336 48.7319C55.8398 48.7319 54.5273 50.0444 54.5273 51.6382V57.6382C54.5273 59.2319 56.4961 60.4507 57.4336 60.5444H61.6523C63.2461 60.5444 64.5586 59.2319 64.5586 57.6382C64.5586 56.0444 63.2461 54.7319 61.6523 54.7319ZM69.2461 57.7319C69.2461 51.1694 63.9023 45.8257 57.3398 45.8257C50.7773 45.8257 45.4336 51.1694 45.4336 57.7319C45.4336 64.2944 50.7773 69.6382 57.3398 69.6382C63.9023 69.6382 69.2461 64.2007 69.2461 57.7319ZM75.1523 57.7319C75.1523 67.4819 67.1836 75.4507 57.4336 75.4507C47.6836 75.4507 39.7148 67.4819 39.7148 57.7319C39.7148 47.9819 47.6836 40.0132 57.4336 40.0132C67.1836 40.0132 75.1523 47.8882 75.1523 57.7319Z" fill="#C58511"/>
</g>
<defs>
<clipPath id="clip0">
<rect width="75" height="75" fill="white" transform="translate(0.152344 0.450684)"/>
</clipPath>
</defs>
</svg>
