<svg width="53" height="54" viewBox="0 0 53 54" fill="none" xmlns="http://www.w3.org/2000/svg">
<path d="M26.5806 0C11.921 0 6.10352e-05 12.1459 6.10352e-05 27.0821C6.10352e-05 42.0182 11.921 54.1641 26.5806 54.1641C41.2402 54.1641 53.1612 42.0182 53.1612 27.0821C53.1612 12.1459 41.0791 0 26.5806 0Z" fill="#C58511"/>
<path d="M28.675 40.541C28.675 41.8541 27.7085 42.8389 26.4197 42.8389C25.131 42.8389 24.1644 41.8541 24.1644 40.541C24.1644 39.228 25.131 38.2432 26.4197 38.2432C27.7085 38.2432 28.675 39.228 28.675 40.541Z" fill="#ECEFF1"/>
<path d="M29.9636 28.3951C29.1582 28.7234 28.6749 29.5441 28.6749 30.3647V31.3495C28.6749 32.6626 27.7083 33.6474 26.4196 33.6474C25.1308 33.6474 24.1643 32.6626 24.1643 31.3495V30.3647C24.1643 27.7386 25.6141 25.2766 28.0305 24.2918C30.2858 23.307 31.8968 20.3526 31.8968 19.0395C31.8968 15.921 29.4804 13.459 26.4196 13.459C23.3588 13.459 20.9424 16.0851 20.9424 19.2036C20.9424 20.5167 19.9758 21.5015 18.6871 21.5015C17.3983 21.5015 16.4317 20.5167 16.4317 19.2036C16.4317 13.6231 20.9424 9.02734 26.4196 9.02734C31.8968 9.02734 36.4074 13.6231 36.4074 19.2036C36.4074 22.158 33.8299 26.5896 29.9636 28.3951Z" fill="#FAFAFA"/>
</svg>
