<?xml version="1.0" encoding="utf-8"?>
<!-- Generator: Adobe Illustrator 24.0.2, SVG Export Plug-In . SVG Version: 6.00 Build 0)  -->
<svg version="1.1" id="Capa_1" xmlns="http://www.w3.org/2000/svg" xmlns:xlink="http://www.w3.org/1999/xlink" x="0px" y="0px"
	 viewBox="0 0 32.2 35" style="enable-background:new 0 0 32.2 35;" xml:space="preserve">
<style type="text/css">
	.st0{fill:#C58511;}
</style>
<g>
	<path class="st0" d="M20.4,12.3c-0.5,0-0.9,0.4-0.9,1c0,0.5,0.4,1,0.9,1c0.5,0,0.9-0.4,0.9-1C21.3,12.7,20.9,12.3,20.4,12.3z
		 M16.2,13.6c-2.2,0-4,1.8-4,4c0,2.2,1.8,4,4,4s4-1.8,4-4C20.1,15.4,18.3,13.6,16.2,13.6z M16.2,20.2c-1.4,0-2.6-1.2-2.6-2.6
		c0-1.4,1.1-2.6,2.6-2.6c1.4,0,2.6,1.2,2.6,2.6C18.7,19,17.5,20.2,16.2,20.2z M24.2,14.2c0-2.7-2.2-4.9-4.9-4.9h-6.4
		c-2.7,0-4.9,2.2-4.9,4.9v6.5c0,2.7,2.2,4.9,4.9,4.9h6.4c2.7,0,4.9-2.2,4.9-4.9V14.2z M22.7,20.8c0,1.9-1.5,3.4-3.4,3.4h-6.4
		c-1.8,0-3.4-1.5-3.4-3.4v-6.5c0-1.9,1.5-3.4,3.4-3.4h6.4c1.8,0,3.4,1.5,3.4,3.4L22.7,20.8L22.7,20.8z"/>
	<path class="st0" d="M16.1,35c-1,0-2.1-0.2-3.1-0.5c-1-0.3-7.1-4-10.6-6.1C0.9,27.4,0,25.8,0,24V10.9c0-1.8,0.9-3.4,2.4-4.3
		c1.6-1,9.4-5.7,10.3-6c2.2-0.9,4.6-0.9,6.8,0c0.8,0.3,6,3.4,10.3,5.9c1.5,0.9,2.4,2.5,2.4,4.3V24c0,1.8-0.9,3.4-2.4,4.3
		c-1.6,1-9.5,5.8-10.6,6.1C18.2,34.8,17.2,35,16.1,35z M16.1,1.8c-1,0-2,0.2-2.9,0.5C12.7,2.5,6.9,5.9,3.4,8c-1,0.7-1.7,1.8-1.7,3
		v12.8c0,1.2,0.7,2.4,1.7,3c5.6,3.4,9.5,5.7,10.1,5.9c1.7,0.6,3.5,0.6,5.2,0c0.7-0.2,6.6-3.8,10.1-5.9c1.1-0.6,1.7-1.7,1.7-3V11
		c0-1.2-0.7-2.4-1.7-3c-6.7-4-9.5-5.6-9.8-5.8C18.1,2,17.1,1.8,16.1,1.8z"/>
</g>
</svg>
