<svg width="81" height="77" viewBox="0 0 81 77" fill="none" xmlns="http://www.w3.org/2000/svg">
<path d="M36.6922 2.83516C37.8826 -0.864719 43.1174 -0.86472 44.3078 2.83516L50.9452 23.4652C51.4772 25.1189 53.0158 26.2401 54.7529 26.2401L76.3152 26.2401C80.1805 26.2401 81.7979 31.1785 78.6815 33.4651L61.1697 46.3142C59.7815 47.3327 59.2009 49.1253 59.7282 50.7643L66.4011 71.5046C67.589 75.1968 63.3541 78.2492 60.227 75.9547L42.8663 63.2165C41.458 62.1832 39.542 62.1832 38.1337 63.2165L20.773 75.9547C17.6459 78.2491 13.411 75.1968 14.5989 71.5046L21.2718 50.7643C21.7991 49.1253 21.2185 47.3327 19.8303 46.3142L2.31852 33.4651C-0.797915 31.1785 0.819467 26.2401 4.68481 26.2401L26.2471 26.2401C27.9842 26.2401 29.5228 25.1189 30.0548 23.4652L36.6922 2.83516Z" fill="#C58511"/>
</svg>
