<svg width="47" height="51" viewBox="0 0 47 51" fill="none" xmlns="http://www.w3.org/2000/svg">
<path d="M23.3196 51.0001C21.8107 51.0001 20.3018 50.7258 18.8615 50.2457C17.4211 49.7655 8.57339 44.4843 3.49794 41.4665C1.37174 40.1633 0 37.8314 0 35.2937V16.5694C0 14.0317 1.37174 11.6997 3.49794 10.4651C5.76132 9.09339 17.1468 2.37186 18.3813 1.89175C21.6049 0.657178 25.1029 0.657178 28.2579 1.89175C29.3553 2.30327 36.9685 6.76143 43.1413 10.3965C45.2675 11.6997 46.6392 14.0317 46.6392 16.5694V35.2937C46.6392 37.8314 45.2675 40.1633 43.1413 41.3979C40.8779 42.7697 29.3553 49.6284 27.7778 50.1771C26.3374 50.7258 24.8285 51.0001 23.3196 51.0001ZM23.3196 3.05773C21.8793 3.05773 20.439 3.33208 19.0672 3.81219C18.2442 4.15512 9.67078 9.09339 4.52675 12.1798C3.01783 13.14 2.05761 14.7861 2.05761 16.5694V35.2937C2.05761 37.0769 3.01783 38.723 4.52675 39.6147C12.7572 44.5529 18.5871 47.9137 19.4787 48.2566C21.9479 49.0797 24.6228 49.0797 27.0919 48.2566C28.1207 47.9137 36.8313 42.7697 42.0439 39.6147C43.6214 38.723 44.5816 37.0769 44.5816 35.2937V16.5694C44.5816 14.7861 43.6214 13.14 42.1125 12.2484C33.8134 7.31013 28.2579 4.08653 27.572 3.81219C26.2003 3.33208 24.7599 3.05773 23.3196 3.05773Z" fill="#C58511"/>
<path d="M23.3196 3.05762C21.8793 3.05762 20.439 3.33197 19.0672 3.81208C18.2442 4.15501 9.67079 9.09328 4.52675 12.1797C3.01784 13.1399 2.05762 14.786 2.05762 16.5693V35.2936C2.05762 37.0768 3.01784 38.7229 4.52675 39.6145C12.7572 44.5528 18.5871 47.9136 19.4787 48.2565C21.9479 49.0796 24.6228 49.0796 27.0919 48.2565C28.1207 47.9136 36.8313 42.7696 42.0439 39.6145C43.6214 38.7229 44.5816 37.0768 44.5816 35.2936V16.5693C44.5816 14.786 43.6214 13.1399 42.1125 12.2483C33.8134 7.31002 28.2579 4.08642 27.572 3.81208C26.2003 3.33197 24.7599 3.05762 23.3196 3.05762Z" fill="transparent"/>
<path d="M34.1563 19.1758C33.4704 19.5187 32.7159 19.6559 31.9615 19.793C32.3044 19.7245 32.8531 19.1072 33.0589 18.8328C33.4018 18.4213 33.6762 18.0098 33.8133 17.5297C33.8133 17.4611 33.8133 17.4611 33.8133 17.3925C33.7447 17.3925 33.7447 17.3925 33.6762 17.3925C32.8531 17.8726 31.9615 18.147 31.0698 18.4213C31.0013 18.4213 30.9327 18.4213 30.8641 18.3527C30.7955 18.2841 30.7269 18.2155 30.6583 18.147C30.2468 17.804 29.8353 17.5297 29.4238 17.3925C28.8065 17.1181 28.1206 17.0496 27.5033 17.0496C26.886 17.1181 26.2002 17.2553 25.6515 17.5983C25.1028 17.8726 24.5541 18.2841 24.1425 18.8328C23.731 19.3815 23.3881 19.9302 23.2509 20.6161C23.1137 21.2334 23.1137 21.8507 23.1823 22.4679C23.1823 22.6051 23.1823 22.6051 23.1137 22.6051C19.5472 22.0564 16.5294 20.7533 14.1288 18.0098C13.9917 17.8726 13.9917 17.8726 13.8545 18.0098C12.8257 19.5873 13.3058 22.125 14.6089 23.4282C14.8147 23.5653 14.9519 23.7711 15.1576 23.9083C15.089 23.9083 14.1974 23.8397 13.443 23.4282C13.3058 23.3596 13.3058 23.4282 13.3058 23.4967C13.3058 23.6339 13.3058 23.8397 13.3058 24.0454C13.5115 25.6229 14.6089 27.1319 16.1179 27.7491C16.3236 27.8177 16.5294 27.8863 16.6666 27.9549C16.3236 28.0235 15.9807 28.0921 14.9519 28.0235C14.8147 28.0235 14.8147 28.0921 14.8147 28.1607C15.5692 30.2183 17.2152 30.8356 18.3812 31.1785C18.5184 31.1785 18.7242 31.1785 18.8613 31.2471C18.4498 31.8644 17.0781 32.3445 16.3922 32.5502C15.2262 32.9618 13.9231 33.1675 12.6885 33.0304C12.4827 33.0304 12.4142 33.0304 12.4142 33.0304C12.3456 33.0304 12.4142 33.0989 12.4827 33.1675C12.7571 33.3047 12.9628 33.5105 13.2372 33.6476C14.0602 34.0592 14.8833 34.4021 15.7063 34.6079C20.1645 35.8424 25.1714 34.9508 28.5321 31.59C31.1384 28.9837 32.0987 25.3486 32.0987 21.7821C32.0987 21.6449 32.2358 21.5763 32.373 21.5077C33.0589 21.0276 33.6076 20.4103 34.0877 19.7245C34.2249 19.5873 34.2249 19.4501 34.2249 19.3815C34.2249 19.1072 34.2249 19.1072 34.1563 19.1758Z" fill="white"/>
</svg>
