<svg width="458" height="133" viewBox="0 0 458 133" fill="none" xmlns="http://www.w3.org/2000/svg">
<path d="M16.13 1.46515C11.86 1.46515 9.34 1.60515 4.23 2.37516V46.8252C9.41 47.5952 12.84 47.6652 16.83 47.6652C32.16 47.6652 41.68 37.9352 41.68 24.2852C41.68 10.6352 32.72 1.46515 16.13 1.46515ZM17.04 42.5552C14.17 42.5552 12.14 42.4152 9.9 42.2052V6.99515C12.35 6.78515 14.1 6.71515 16.13 6.71515C29.57 6.71515 35.73 13.9252 35.73 24.4252C35.73 35.0652 29.43 42.5552 17.04 42.5552ZM77.8596 27.7152C77.8596 19.1752 71.6296 13.0852 63.1596 13.0852C54.1996 13.0852 47.1996 20.4352 47.1996 30.6552C47.1996 41.2252 53.9896 48.0152 63.6496 48.0152C69.8096 48.0152 73.9396 45.4952 76.5996 43.2552C76.2496 41.7852 74.9196 40.1052 73.5196 39.4052C71.6996 40.8052 69.1796 42.8352 63.7196 42.8352C57.6996 42.8352 53.4996 38.2852 53.0796 32.1952H77.5796C77.7896 30.3052 77.8596 29.4652 77.8596 27.7152ZM53.1496 27.5052C53.7796 22.3952 57.4196 18.1252 63.1596 18.1252C69.5996 18.1252 71.9796 23.0252 71.9796 27.5052H53.1496ZM105.187 14.2052C102.947 13.4352 100.777 13.0852 98.117 13.0852C92.657 13.0852 87.547 15.2552 84.817 17.5652V47.0352C85.797 47.2452 86.707 47.3152 87.687 47.3152C88.667 47.3152 89.647 47.2452 90.557 47.0352V20.0852C92.377 18.9652 94.897 18.4052 97.767 18.4052C99.797 18.4052 101.967 18.6152 103.787 19.1052C104.767 17.8452 105.327 15.8852 105.187 14.2052ZM137.283 27.7152C137.283 19.1752 131.053 13.0852 122.583 13.0852C113.623 13.0852 106.623 20.4352 106.623 30.6552C106.623 41.2252 113.413 48.0152 123.073 48.0152C129.233 48.0152 133.363 45.4952 136.023 43.2552C135.673 41.7852 134.343 40.1052 132.943 39.4052C131.123 40.8052 128.603 42.8352 123.143 42.8352C117.123 42.8352 112.923 38.2852 112.503 32.1952H137.003C137.213 30.3052 137.283 29.4652 137.283 27.7152ZM112.573 27.5052C113.203 22.3952 116.843 18.1252 122.583 18.1252C129.023 18.1252 131.403 23.0252 131.403 27.5052H112.573ZM159.43 48.0152C164.4 48.0152 168.74 45.8452 170.84 43.6752C170.28 41.9252 169.16 40.5952 167.62 39.7552C166.36 40.7352 164.05 42.8352 159.43 42.8352C151.59 42.8352 148.09 36.9552 148.09 30.5852C148.09 24.2152 151.59 18.1952 159.43 18.1952C162.79 18.1952 165.17 19.5252 167.13 21.0652C168.81 20.0852 169.86 18.6152 170.35 16.9352C168.25 14.9752 164.33 13.0852 159.43 13.0852C149.77 13.0852 142.35 20.2252 142.35 30.5852C142.35 41.5052 149.42 48.0152 159.43 48.0152ZM192.778 13.0852C188.788 13.0852 185.708 14.1352 182.978 15.6752V1.04516C182.068 0.835154 181.088 0.765155 180.178 0.765155C179.268 0.765155 178.288 0.835154 177.308 1.04516V47.0352C178.288 47.2452 179.268 47.3152 180.178 47.3152C181.088 47.3152 182.068 47.2452 182.978 47.0352V20.9252C185.498 19.4552 188.788 18.4752 191.728 18.4752C199.428 18.4752 201.388 23.2352 201.388 28.6252V47.0352C202.368 47.2452 203.278 47.3152 204.188 47.3152C205.098 47.3152 206.148 47.2452 207.058 47.0352V26.5952C207.058 19.7352 202.718 13.0852 192.778 13.0852ZM230.809 47.9452C240.679 47.9452 248.029 40.3852 248.029 30.5152C248.029 20.6452 241.099 13.0152 231.229 13.0152C221.359 13.0152 214.009 20.6452 214.009 30.5152C214.009 40.3852 220.939 47.9452 230.809 47.9452ZM231.019 42.6952C224.089 42.6952 219.749 37.6552 219.749 30.5152C219.749 23.3752 224.089 18.2652 231.019 18.2652C237.949 18.2652 242.289 23.3752 242.289 30.5152C242.289 37.6552 237.949 42.6952 231.019 42.6952ZM23.41 132.295C31.39 132.295 35.87 129.915 38.53 127.745C37.83 123.685 36.15 121.235 32.86 119.345C30.76 121.165 28.24 122.495 23.83 122.495C16.62 122.495 11.58 117.105 11.58 108.565C11.58 99.8152 16.55 94.5652 24.11 94.5652C27.05 94.5652 29.43 95.3352 32.02 97.1552C35.03 95.5452 37.2 92.1152 37.69 88.9652C34.68 86.5152 30.13 84.6252 23.83 84.6252C9.97 84.6252 0.24 94.5652 0.24 108.565C0.24 122.565 9.13 132.295 23.41 132.295ZM47.3374 93.5152C50.7674 93.5152 53.6374 90.6452 53.6374 87.2152C53.6374 83.7852 50.7674 80.9852 47.3374 80.9852C43.8374 80.9852 41.0374 83.7852 41.0374 87.2152C41.0374 90.6452 43.9074 93.5152 47.3374 93.5152ZM47.2674 131.455C49.0874 131.455 50.8374 131.315 52.5174 131.035V97.7852C50.6974 97.5052 48.9474 97.3652 47.2674 97.3652C45.5174 97.3652 43.7674 97.5052 42.0874 97.7852V131.035C43.8374 131.315 45.5874 131.455 47.2674 131.455ZM84.3576 97.6452C82.9576 97.6452 81.4876 97.7152 80.2976 97.8552C78.4076 107.445 76.0276 115.985 74.1376 120.675C73.9976 121.165 73.8576 121.655 73.7176 122.285C73.5776 121.655 73.4376 121.165 73.2976 120.675C71.6176 116.405 68.9576 107.445 67.0676 97.8552C65.9476 97.7152 64.4776 97.6452 63.2176 97.6452C60.3476 97.6452 57.1276 98.0652 55.7276 98.4152C58.5276 111.015 61.7476 120.745 68.3976 131.035C70.1476 131.385 71.8276 131.525 73.5776 131.525C75.2576 131.525 77.0076 131.385 78.6876 131.035C84.7076 121.165 88.2076 111.295 91.2176 98.4152C89.4676 97.9952 86.8776 97.6452 84.3576 97.6452ZM99.7882 93.5152C103.218 93.5152 106.088 90.6452 106.088 87.2152C106.088 83.7852 103.218 80.9852 99.7882 80.9852C96.2882 80.9852 93.4882 83.7852 93.4882 87.2152C93.4882 90.6452 96.3582 93.5152 99.7882 93.5152ZM99.7182 131.455C101.538 131.455 103.288 131.315 104.968 131.035V97.7852C103.148 97.5052 101.398 97.3652 99.7182 97.3652C97.9682 97.3652 96.2182 97.5052 94.5382 97.7852V131.035C96.2882 131.315 98.0382 131.455 99.7182 131.455ZM116.718 131.455C118.468 131.455 120.288 131.315 121.898 131.035V85.1852C120.078 84.9052 118.258 84.7652 116.508 84.7652C114.758 84.7652 113.008 84.9052 111.398 85.1852V131.035C113.218 131.315 114.968 131.455 116.718 131.455Z" fill="#C58511"/>
</svg>
