{
    "education": [{
            "title": "Pregrado Derecho",
            "university": "Universidad Julio Garavito"
        },
        {
            "title": "Pregrado Derecho",
            "university": "Pontificia Universidad Javeriana"
        }
    ]
}
